{
  "count": 1115,
  "next": "https://search-api.s.us-east-1.aws.dckr.io/v2/search/repositories/?page=2\u0026page_size=20\u0026query=istio",
  "previous": "",
  "results": [
    {
      "repo_name": "istio/proxy_debug",
      "short_description": "",
      "star_count": 4,
      "pull_count": 39166769,
      "repo_owner": "",
      "is_automated": false,
      "is_official": false
    }
  ]
}
